C.2 Annotating cell types • XM2023
…
Use a curated reference data set, in this case derived from Blueprint
and ENCODE data.

library(celldex)
ref <- BlueprintEncodeData()
#> Warning: 'BlueprintEncodeData' is deprecated.
#> Use 'celldex::BlueprintEncodeData' instead.
#> See help("Deprecated")
#> see ?celldex and browseVignettes('celldex') for documentation
#> loading from cache
#> see ?celldex and browseVignettes('celldex') for documentation
#> loading from cache
colData(ref) |>
    dplyr::as_tibble()
#> # A tibble: 259 × 3
#>    label.main  label.fine  label.ont 
#>    <chr>       <chr>       <chr>     
#>  1 Neutrophils Neutrophils CL:0000775
#>  2 Monocytes   Monocytes   CL:0000576
#>  3 Neutrophils Neutrophils CL:0000775
#>  4 HSC         MEP         CL:0000050
#>  5 Neutrophils Neutrophils CL:0000775
#>  6 Monocytes   Monocytes   CL:0000576
#>  7 Neutrophils Neutrophils CL:0000775
#>  8 Monocytes   Monocytes   CL:0000576
#>  9 Neutrophils Neutrophils CL:0000775
#> 10 Neutrophils Neutrophils CL:0000775
#> # ℹ 249 more rows
colData(ref) |>
    dplyr::as_tibble() |>
    dplyr::count(label.main, sort = TRUE)
#> # A tibble: 25 × 2
#>    label.main            n
#>    <chr>             <int>
#>  1 HSC                  38
#>  2 Endothelial cells    26
#>  3 Macrophages          25
#>  4 Neutrophils          23
#>  5 Fibroblasts          20
#>  6 Epithelial cells     18
#>  7 Monocytes            16
#>  8 Smooth muscle        16
#>  9 CD4+ T-cells         14
#> 10 Adipocytes            9
#> # ℹ 15 more rows
…
