D. From CELLxGENE to R and Bioconductor • XM2023
…
Retrieve the current database, and use ‘tidy’ functionality to mimic
the graphical selection in the web browser – 10x 3’ v3 (EFO:0009922)
assay, African American ethnicity, female gender)

db <- db()
african_american_female <-
    datasets(db) |>
    dplyr::filter(
        facets_filter(assay, "ontology_term_id", "EFO:0009922"),
        facets_filter(self_reported_ethnicity, "label", "African American"),
        facets_filter(sex, "label", "female")
    )
african_american_female
#> # A tibble: 32 × 26
#>    dataset_id                 collection_id donor_id assay  cell_count cell_type
#>    <chr>                      <chr>         <list>   <list>      <int> <list>   
#>  1 8693bc2c-d84f-450f-983a-d… bcb61471-2a4… <list>   <list>     304652 <list>   
#>  2 37f30005-8a5c-4bdf-88aa-a… bcb61471-2a4… <list>   <list>     172847 <list>   
#>  3 54914718-c0d3-4e17-9e06-d… bcb61471-2a4… <list>   <list>     107344 <list>   
#>  4 4c4dedb7-1f74-4be7-9916-2… b953c942-f5d… <list>   <list>      23197 <list>   
#>  5 8716534a-4c1c-414c-aa98-4… b953c942-f5d… <list>   <list>      96129 <list>   
#>  6 24205601-0780-4bf2-b1d9-0… c9706a92-0e5… <list>   <list>      31696 <list>   
#>  7 a963dd1b-ee7e-42b3-8afe-0… a98b828a-622… <list>   <list>      48783 <list>   
#>  8 36e76662-60b8-4193-8a70-1… 625f6bf4-2f3… <list>   <list>      46500 <list>   
#>  9 611c3577-81cb-4795-ad3a-4… b9fc3d70-5a7… <list>   <list>      49139 <list>   
#> 10 0ed93577-0ff5-435e-b599-b… b9fc3d70-5a7… <list>   <list>     109995 <list>   
#> # ℹ 22 more rows
#> # ℹ 20 more variables: dataset_deployments <chr>, development_stage <list>,
#> #   disease <list>, is_primary_data <chr>, is_valid <lgl>,
#> #   mean_genes_per_cell <dbl>, name <chr>, organism <list>,
#> #   processing_status <list>, published <lgl>, revision <int>,
#> #   schema_version <chr>, self_reported_ethnicity <list>, sex <list>,
#> #   suspension_type <list>, tissue <list>, tombstone <lgl>, …
…
