F. Annotating cell types in Bioconductor • XM2023
…
Using curated reference data

One approach to cell annotation is to compare expression profiles to
a curated reference data set. We use the reference data derived from
Blueprint and ENCODE data; see browseVignettes("celldex")
for a description of this and other reference datasets.

ref <- celldex::BlueprintEncodeData()
#> see ?celldex and browseVignettes('celldex') for documentation
#> loading from cache
#> see ?celldex and browseVignettes('celldex') for documentation
#> loading from cache
colData(ref) |>
    dplyr::as_tibble()
#> # A tibble: 259 × 3
#>    label.main  label.fine  label.ont 
#>    <chr>       <chr>       <chr>     
#>  1 Neutrophils Neutrophils CL:0000775
#>  2 Monocytes   Monocytes   CL:0000576
#>  3 Neutrophils Neutrophils CL:0000775
#>  4 HSC         MEP         CL:0000050
#>  5 Neutrophils Neutrophils CL:0000775
#>  6 Monocytes   Monocytes   CL:0000576
#>  7 Neutrophils Neutrophils CL:0000775
#>  8 Monocytes   Monocytes   CL:0000576
#>  9 Neutrophils Neutrophils CL:0000775
#> 10 Neutrophils Neutrophils CL:0000775
#> # ℹ 249 more rows
colData(ref) |>
    dplyr::as_tibble() |>
    dplyr::count(label.main, sort = TRUE)
#> # A tibble: 25 × 2
#>    label.main            n
#>    <chr>             <int>
#>  1 HSC                  38
#>  2 Endothelial cells    26
#>  3 Macrophages          25
#>  4 Neutrophils          23
#>  5 Fibroblasts          20
#>  6 Epithelial cells     18
#>  7 Monocytes            16
#>  8 Smooth muscle        16
#>  9 CD4+ T-cells         14
#> 10 Adipocytes            9
#> # ℹ 15 more rows

Annotate our data using the ‘main’ label for cell type

library(SingleR)
## assign each cell in sce.pbmc to a type
pred <- SingleR(test=sce.pbmc, ref=ref, labels=ref$label.main)
pred |>
    dplyr::as_tibble(rownames = "cell_id")
#> # A tibble: 4,300 × 29
#>    cell_id            scores.Adipocytes scores.Astrocytes scores.B.cells
#>    <chr>                          <dbl>             <dbl>          <dbl>
#>  1 AAACCTGAGAAGGCCT-1             0.252            0.119           0.288
#>  2 AAACCTGAGACAGACC-1             0.280            0.133           0.335
#>  3 AAACCTGAGATAGTCA-1             0.267            0.149           0.298
#>  4 AAACCTGAGGCATGGT-1             0.212            0.154           0.346
#>  5 AAACCTGCAAGGTTCT-1             0.218            0.155           0.368
#>  6 AAACCTGCAGGATTGG-1             0.244            0.139           0.382
#>  7 AAACCTGCAGGCGATA-1             0.324            0.182           0.484
#>  8 AAACCTGCATGAAGTA-1             0.313            0.167           0.461
#>  9 AAACCTGGTAAATGAC-1             0.149            0.0955          0.195
#> 10 AAACCTGGTACATCCA-1             0.210            0.133           0.421
#> # ℹ 4,290 more rows
#> # ℹ 25 more variables: scores.CD4..T.cells <dbl>, scores.CD8..T.cells <dbl>,
#> #   scores.Chondrocytes <dbl>, scores.DC <dbl>, scores.Endothelial.cells <dbl>,
#> #   scores.Eosinophils <dbl>, scores.Epithelial.cells <dbl>,
#> #   scores.Erythrocytes <dbl>, scores.Fibroblasts <dbl>, scores.HSC <dbl>,
#> #   scores.Keratinocytes <dbl>, scores.Macrophages <dbl>,
#> #   scores.Melanocytes <dbl>, scores.Mesangial.cells <dbl>, …
…
