G. Differential Expression in Bioconductor • XM2023
…
## dimensionality reduction
merged <- runTSNE(merged, dimred="corrected", external_neighbors=TRUE)
merged <- runUMAP(merged, dimred="corrected", external_neighbors=TRUE)

Differential expression

Initial observations – labels are similar, whether a ‘td-Tomato’
positive cell or not.

colData(merged) |>
    dplyr::as_tibble() |>
    dplyr::count(label, tomato) |>
    tidyr::pivot_wider(names_from = "tomato", values_from = "n")
#> # A tibble: 26 × 3
#>    label `FALSE` `TRUE`
#>    <fct>   <int>  <int>
#>  1 1         129    264
#>  2 2         363    512
#>  3 3         417    632
#>  4 4        1255    973
#>  5 5        1444    753
#>  6 6         868   1092
#>  7 7         542    398
#>  8 8         476    405
#>  9 9         269    333
#> 10 10        608    604
#> # ℹ 16 more rows
…
